The Knicks; a Tragic Franchise - The Ineptitude of the Knicks
…
Rows: 1194 Columns: 29

── Column specification ────────────────────────────────────────────────────────
Delimiter: ","
chr  (2): team, arena
dbl (25): rk, age, w, l, pw, pl, mov, sos, srs, o_rtg, d_rtg, n_rtg, pace, f...

ℹ Use `spec()` to retrieve the full column specification for this data.
ℹ Specify the column types or set `show_col_types = FALSE` to quiet this message.

Knicks %>% filter(team == "New York Knicks")

# A tibble: 43 × 29
      rk team    age     w     l    pw    pl   mov   sos   srs o_rtg d_rtg n_rtg
   <dbl> <chr> <dbl> <dbl> <dbl> <dbl> <dbl> <dbl> <dbl> <dbl> <dbl> <dbl> <dbl>
 1    15 New …  24.1    39    43    38    44 -1.15  0.19 -0.96 106.  108.   -1  
 2     8 New …  25.1    50    32    45    37  1.62  0.38  2    106   104.    1.6
 3    18 New …  28      33    49    34    48 -2.67  0.52 -2.15 106   109.   -2.6
 4     9 New …  26.5    44    38    48    34  2.45  0.13  2.58 102.   99.9   2.5
 5     3 New …  27.2    47    35    51    31  3.84 -0.05  3.79 107   103.    3.9
 6    20 New …  25.8    24    58    29    53 -4.63  0.54 -4.09 105.  110.   -4.7
 7    22 New …  25.5    23    59    26    56 -5.61  0.79 -4.82  99.5 105.   -5.7
 8    22 New …  26.4    24    58    25    57 -6.27  0.85 -5.42 105.  111.   -6.3
 9    14 New …  25.3    38    44    40    42 -0.49  0.63  0.14 106.  106.   -0.5
10     8 New …  25.3    52    30    50    32  3.77 -0.15  3.62 111.  108.    3.6
# … with 33 more rows, and 16 more variables: pace <dbl>, f_tr <dbl>,
#   x3p_ar <dbl>, ts_percent <dbl>, e_fg_percent <dbl>, tov_percent <dbl>,
#   orb_percent <dbl>, ft_fga <dbl>, e_fg_percent_2 <dbl>, tov_percent_2 <dbl>,
#   drb_percent <dbl>, ft_fga_2 <dbl>, arena <chr>, attend <dbl>,
#   attend_g <dbl>, season <dbl>
…
